<?xml version="1.0"?>
<!--
Copyright 2023 Woods Hole Oceanographic Institution

Redistribution and use in source and binary forms, with or without
modification, are permitted provided that the following conditions are met:

1. Redistributions of source code must retain the above copyright notice,
   this list of conditions and the following disclaimer.

2. Redistributions in binary form must reproduce the above copyright notice,
   this list of conditions and the following disclaimer in the documentation
   and/or other materials provided with the distribution.

3. Neither the name of the copyright holder nor the names of its contributors
   may be used to endorse or promote products derived from this software
   without specific prior written permission.

THIS SOFTWARE IS PROVIDED BY THE COPYRIGHT HOLDERS AND CONTRIBUTORS "AS IS"
AND ANY EXPRESS OR IMPLIED WARRANTIES, INCLUDING, BUT NOT LIMITED TO, THE
IMPLIED WARRANTIES OF MERCHANTABILITY AND FITNESS FOR A PARTICULAR PURPOSE
ARE DISCLAIMED. IN NO EVENT SHALL THE COPYRIGHT HOLDER OR CONTRIBUTORS BE
LIABLE FOR ANY DIRECT, INDIRECT, INCIDENTAL, SPECIAL, EXEMPLARY, OR
CONSEQUENTIAL DAMAGES (INCLUDING, BUT NOT LIMITED TO, PROCUREMENT OF
SUBSTITUTE GOODS OR SERVICES; LOSS OF USE, DATA, OR PROFITS; OR BUSINESS
INTERRUPTION) HOWEVER CAUSED AND ON ANY THEORY OF LIABILITY, WHETHER IN
CONTRACT, STRICT LIABILITY, OR TORT (INCLUDING NEGLIGENCE OR OTHERWISE)
ARISING IN ANY WAY OUT OF THE USE OF THIS SOFTWARE, EVEN IF ADVISED OF THE
POSSIBILITY OF SUCH DAMAGE.
-->
<robot xmlns:xacro="http://www.ros.org/wiki/xacro">
<!-- URDF model for a Technadyne Model 560 thruster with integrated electronics -->
<xacro:macro name="thruster_maytech" params="name parent_link xyz rpy **sim">

  <!-- First, define the link -->
  <link name="${name}">
    <visual>
      <origin xyz="0 0 0" rpy="0 0 ${pi}"/>
      <geometry>
      <mesh filename="package://ds_sensors/urdf/mesh/thruster_maytech.stl"/>
      </geometry>
      <material name="blue"/>
    </visual>
  </link>
  <gazebo reference="${name}">
    <material>Gazebo/Blue</material>
  </gazebo>

  <!-- Now apply the offsets -->
  <joint name="base_to_${name}" type="fixed">
    <parent link="${parent_link}"/>
    <child link="${name}"/>
    <origin xyz="${xyz}" rpy="${rpy}"/>
  </joint>

  <!-- Gazebo sim stuff, if applicable -->
  <xacro:insert_block name="sim"/>

</xacro:macro>

</robot>
